<svg xmlns="http://www.w3.org/2000/svg" xmlns:xlink="http://www.w3.org/1999/xlink" width="36" height="36" viewBox="0 0 36 36">
    <defs>
        <circle id="b" cx="16" cy="16" r="16"/>
        <filter id="a" width="112.5%" height="112.5%" x="-9.4%" y="-3.1%" filterUnits="objectBoundingBox">
            <feOffset dx="-2" dy="2" in="SourceAlpha" result="shadowOffsetOuter1"/>
            <feComposite in="shadowOffsetOuter1" in2="SourceAlpha" operator="out" result="shadowOffsetOuter1"/>
            <feColorMatrix in="shadowOffsetOuter1" values="0 0 0 0 0.517647059 0 0 0 0 0.458823529 0 0 0 0 0.305882353 0 0 0 0.2 0"/>
        </filter>
    </defs>
    <g fill="none" fill-rule="evenodd">
        <g fill-rule="nonzero" transform="translate(2 2)">
            <use fill="#000" filter="url(#a)" xlink:href="#b"/>
            <circle cx="16" cy="16" r="15.5" fill="#FFF" fill-rule="evenodd" stroke="#9D9171" stroke-linejoin="square"/>
        </g>
        <path stroke="#84754E" stroke-linecap="round" stroke-width="2" d="M13.556 18h8.888"/>
    </g>
</svg>
