<svg xmlns="http://www.w3.org/2000/svg" xmlns:xlink="http://www.w3.org/1999/xlink" width="36" height="36" viewBox="0 0 36 36">
    <defs>
        <circle id="a" cx="16" cy="16" r="16"/>
    </defs>
    <g fill="none" fill-rule="evenodd">
        <g fill-rule="nonzero" transform="translate(2 2)">
            <use fill="#EAE6DC" xlink:href="#a"/>
            <use fill="#F0EBE0" xlink:href="#a"/>
        </g>
        <path stroke="#CBC3B0" stroke-linecap="round" stroke-width="2" d="M13.556 18h8.888"/>
    </g>
</svg>
