<svg xmlns="http://www.w3.org/2000/svg" width="24" height="24" viewBox="0 0 24 24">
    <path fill="#3E454B" fill-rule="nonzero" d="M12 22.083C6.431 22.083 1.917 17.57 1.917 12S6.43 1.917 12 1.917 22.083 6.43 22.083 12 17.57 22.083 12 22.083zm0-19.09A9.007 9.007 0 0 0 2.992 12 9.007 9.007 0 0 0 12 21.008 9.007 9.007 0 0 0 21.008 12 9.007 9.007 0 0 0 12 2.992zm3.916 4.449l.642.642v.118l-8.356 8.356h-.118l-.642-.642v-.118l8.356-8.356h.118zm-7.714 0l8.357 8.356v.118l-.643.643h-.118L7.442 8.202v-.118l.642-.642h.118z"/>
</svg>
