<svg xmlns="http://www.w3.org/2000/svg" width="20" height="45" viewBox="0 0 20 45">
    <g fill="#BCB39E" fill-rule="evenodd">
        <path d="M6.024 15.01a3.796 3.796 0 1 0 7.588-.003 3.796 3.796 0 0 0-7.588.003zM8.858 19.835a6.095 6.095 0 0 1 2.26.025c4.916.507 6.51 5.51 6.059 9.323-.195 1.65-3.151 1.667-2.952 0 .163-1.389.093-3.487-.747-4.98v5.44c0 .06-.006.122-.009.184 0 .029.01.055.01.083 0 4.314.006 8.626.21 12.938.09 1.915-3.287 1.906-3.378 0-.16-3.38-.198-6.76-.208-10.14-.16.01-.32.01-.48 0-.01 3.38-.048 6.763-.205 10.14-.09 1.906-3.468 1.915-3.378 0 .201-4.312.208-8.624.208-12.938 0-.133.022-.254.052-.372.005-1.874.086-3.746.063-5.62-1.009 1.5-1.098 3.783-.925 5.265.198 1.664-2.757 1.647-2.953 0-.46-3.896 1.211-9.027 6.373-9.348z"/>
    </g>
</svg>
