<?xml version="1.0" encoding="UTF-8"?>
<svg width="20px" height="20px" viewBox="0 0 20 20" version="1.1" xmlns="http://www.w3.org/2000/svg" xmlns:xlink="http://www.w3.org/1999/xlink">
    <!-- Generator: Sketch 50.2 (55047) - http://www.bohemiancoding.com/sketch -->
    <title>cheapest-icon</title>
    <desc>Created with Sketch.</desc>
    <defs></defs>
    <g id="SP01_網路購票-(尚未調整Feeback)" stroke="none" stroke-width="1" fill="none" fill-rule="evenodd">
        <g id="BD02.2_檢視雙週票價-來回" transform="translate(-731.000000, -341.000000)" fill="#BB0A30">
            <path d="M731,341 L749,341 C750.104569,341 751,341.895431 751,343 L751,361 L731,341 Z" id="cheapest-icon"></path>
        </g>
    </g>
</svg>