<svg xmlns="http://www.w3.org/2000/svg" width="24" height="24" viewBox="0 0 24 24">
    <g fill="#FFF" fill-rule="evenodd" stroke="#FFF" stroke-width=".2">
        <path d="M21.246 2h-5.452a.754.754 0 1 0 0 1.508h4.698v4.698a.754.754 0 1 0 1.508 0V2.754A.754.754 0 0 0 21.246 2z"/>
        <path d="M21.78 2.22a.753.753 0 0 0-1.067 0L9.96 12.976a.753.753 0 1 0 1.065 1.065L21.78 3.287a.753.753 0 0 0 0-1.066z"/>
        <path d="M18.683 11.372a.754.754 0 0 0-.753.754v8.366H3.508V6.07h8.366a.754.754 0 1 0 0-1.507h-9.12A.754.754 0 0 0 2 5.317v15.93c0 .416.337.753.754.753h15.93a.754.754 0 0 0 .753-.754v-9.12a.754.754 0 0 0-.754-.754z"/>
    </g>
</svg>
