<svg xmlns="http://www.w3.org/2000/svg" width="26" height="26" viewBox="0 0 26 26">
    <g fill="none" fill-rule="evenodd">
        <circle cx="12" cy="12" r="12" stroke="#FFF" transform="translate(1 1)"/>
        <path fill="#FFF" d="M13.628 10.662v8.1c0 .522-.306.846-.792.846-.486 0-.792-.324-.792-.846v-8.1c0-.522.306-.846.792-.846.486 0 .792.324.792.846zm-1.764-3.114c0-.54.432-.972.972-.972s.972.432.972.972-.432.972-.972.972a.968.968 0 0 1-.972-.972z"/>
    </g>
</svg>
