<svg xmlns="http://www.w3.org/2000/svg" width="20" height="45" viewBox="0 0 20 45">
    <g fill="#BCB39E" fill-rule="evenodd">
        <path d="M13.105 3.926a3.755 3.755 0 1 1-7.507-.003 3.755 3.755 0 0 1 7.507.003zM10.66 9.47a6.827 6.827 0 0 0-2.871.036C1.545 10.238-.48 17.462.094 22.969c.248 2.383 4.002 2.407 3.75 0-.208-2.005-.118-5.036.948-7.19v7.853c0 .089.007.178.011.268 0 .04-.011.078-.011.119 0 6.23-.008 12.457-.269 18.685-.114 2.765 4.177 2.753 4.291 0 .203-4.882.252-9.762.265-14.643.203.012.406.012.61 0 .011 4.881.06 9.766.26 14.643.114 2.753 4.405 2.765 4.291 0-.256-6.228-.264-12.455-.264-18.685 0-.192-.028-.367-.066-.538-.007-2.705-.11-5.409-.081-8.114 1.282 2.164 1.395 5.462 1.175 7.602-.252 2.403 3.502 2.38 3.751 0 .585-5.626-1.538-13.036-8.095-13.5z"/>
    </g>
</svg>
