<svg xmlns="http://www.w3.org/2000/svg" width="24" height="24" viewBox="0 0 24 24">
    <path fill="#FAF9F2" fill-rule="evenodd" d="M13.246.812l2.628 5.567c.204.43.595.728 1.05.797l5.878.892c1.141.174 1.599 1.642.772 2.484l-4.254 4.335a1.496 1.496 0 0 0-.4 1.287l1.004 6.12c.195 1.189-1 2.097-2.021 1.536l-5.257-2.89a1.337 1.337 0 0 0-1.296 0l-5.257 2.89c-1.022.56-2.217-.347-2.021-1.536l1.003-6.12a1.494 1.494 0 0 0-.4-1.287L.422 10.552c-.827-.842-.37-2.31.772-2.484l5.877-.892a1.401 1.401 0 0 0 1.05-.797L10.747.812a1.367 1.367 0 0 1 2.498 0z"/>
</svg>
