<svg xmlns="http://www.w3.org/2000/svg" width="36" height="36" viewBox="0 0 36 36">
    <path fill="#3E454B" fill-rule="nonzero" d="M30.018 17.4a.912.912 0 0 0-.925.9v6.801a3.728 3.728 0 0 0-1.849-.501h-8.32v-1.8h4.623c2.038 0 3.697-1.615 3.697-3.6v-9c0-3.97-3.317-7.2-7.395-7.2H16.15c-4.078 0-7.395 3.23-7.395 7.2v9c0 1.985 1.659 3.6 3.697 3.6h4.623v1.8h-8.32c-.677 0-1.303.19-1.85.501V18.3c0-.497-.413-.9-.924-.9a.912.912 0 0 0-.924.9v9.9c0 1.985 1.659 3.6 3.698 3.6h18.488c2.04 0 3.698-1.615 3.698-3.6v-9.9c0-.497-.413-.9-.924-.9zM12.453 21c-1.02 0-1.849-.806-1.849-1.8v-9c0-2.983 2.484-5.4 5.547-5.4h3.698c3.063 0 5.547 2.417 5.547 5.4v9c0 .994-.828 1.8-1.85 1.8H12.454zm14.791 9H8.756c-1.022 0-1.85-.806-1.85-1.8s.828-1.8 1.85-1.8h18.488c1.022 0 1.85.806 1.85 1.8s-.828 1.8-1.85 1.8z"/>
</svg>
