<svg xmlns="http://www.w3.org/2000/svg" width="24" height="24" viewBox="0 0 24 24">
    <g fill="#3E454B" fill-rule="evenodd">
        <path fill-rule="nonzero" d="M11.396 19.113A.858.858 0 1 0 12.61 17.9a.858.858 0 0 0-1.213 1.213zm3.801-3.175c-.16 0-.32-.061-.441-.184a3.898 3.898 0 0 0-5.506 0 .626.626 0 0 1-.885-.885 5.112 5.112 0 0 1 3.637-1.506c1.373 0 2.666.535 3.637 1.506a.626.626 0 0 1-.442 1.069zm6.17-6.17c-.16 0-.32-.061-.441-.184-4.92-4.92-12.928-4.92-17.848 0a.626.626 0 0 1-.885-.885A13.826 13.826 0 0 1 12 4.636 13.826 13.826 0 0 1 21.807 8.7a.626.626 0 0 1-.44 1.069z"/>
        <path d="M18.31 12.826c-.16 0-.32-.06-.44-.183a8.25 8.25 0 0 0-5.868-2.43 8.243 8.243 0 0 0-5.865 2.43.626.626 0 0 1-.885-.885 9.532 9.532 0 0 1 6.75-2.797c1.24 0 2.447.234 3.592.7a9.495 9.495 0 0 1 3.158 2.097.626.626 0 0 1-.441 1.068z"/>
    </g>
</svg>
