<?xml version="1.0" encoding="UTF-8"?>
<svg width="27px" height="20px" viewBox="0 0 27 20" version="1.1" xmlns="http://www.w3.org/2000/svg" xmlns:xlink="http://www.w3.org/1999/xlink">
    <!-- Generator: Sketch 52.1 (67048) - http://www.bohemiancoding.com/sketch -->
    <title>cradle (2)</title>
    <desc>Created with Sketch.</desc>
    <g id="SP06" stroke="none" stroke-width="1" fill="none" fill-rule="evenodd">
        <g id="SD01.1_SP06" transform="translate(-1137.000000, -1263.000000)" fill="#FAF9F2">
            <g id="Group-29" transform="translate(925.000000, 541.000000)">
                <g id="Group-35" transform="translate(0.000000, 527.000000)">
                    <g id="Group-31" transform="translate(25.000000, 65.000000)">
                        <g id="Group-45" transform="translate(0.000000, 60.000000)">
                            <g id="Group-51" transform="translate(180.000000, 60.000000)">
                                <g id="cradle-(2)" transform="translate(7.000000, 10.000000)">
                                    <path d="M0,11.6236113 L0,15.6841423 C0,17.6516208 1.570131,19.2703323 3.56330373,19.434458 L23.3832619,19.434458 C25.3762012,19.2703323 26.9465656,17.6516208 26.9465656,15.6841423 L26.9465656,11.6236113 L0,11.6236113 Z" id="Path"></path>
                                    <path d="M8.25339638,9.87616933 L8.25339638,0.0430604463 C3.62677165,0.483358984 0,4.26388453 0,8.84790427 L0,9.87616933 L8.25339638,9.87616933 Z" id="Path"></path>
                                    <path d="M10.0619987,1.74721651 L10.0619987,9.87616933 L13.0076569,9.87616933 L13.0076569,0.873608253 C13.0076569,0.391151058 12.6028156,0 12.1032391,0 L10.0619987,0 L10.0619987,1.74721651 Z" id="Path"></path>
                                </g>
                            </g>
                        </g>
                    </g>
                </g>
            </g>
        </g>
    </g>
</svg>