<?xml version="1.0" encoding="UTF-8"?>
<svg width="23px" height="18px" viewBox="0 0 23 18" version="1.1" xmlns="http://www.w3.org/2000/svg" xmlns:xlink="http://www.w3.org/1999/xlink">
    <!-- Generator: Sketch 52.1 (67048) - http://www.bohemiancoding.com/sketch -->
    <title>XMLID_214_</title>
    <desc>Created with Sketch.</desc>
    <g id="SP03" stroke="none" stroke-width="1" fill="none" fill-rule="evenodd">
        <g id="BD02.3_SP03" transform="translate(-635.000000, -2025.000000)" fill="#FFFFFF" fill-rule="nonzero">
            <g id="Group-15" transform="translate(155.000000, 1964.000000)">
                <g id="Group-14" transform="translate(50.000000, 13.000000)">
                    <g id="XMLID_214_" transform="translate(430.000000, 48.000000)">
                        <path d="M9.36692759,7.69981238 L15.6046967,1.36772983 C16.2700587,0.742964353 17.0518591,0.253283302 18,2.94625435e-14 L16.9520548,2.94625435e-14 L14.723092,2.94625435e-14 L11.7455969,2.94625435e-14 C11.6624266,2.94625435e-14 11.5958904,2.94625435e-14 11.5293542,2.94625435e-14 C11.4960861,2.94625435e-14 11.462818,2.94625435e-14 11.4129159,2.94625435e-14 C11.3796477,2.94625435e-14 11.3630137,2.94625435e-14 11.3297456,2.94625435e-14 C11.130137,0.0168855535 10.9471624,0.0506566604 10.7475538,0.101313321 C10.7309198,0.101313321 10.7309198,0.101313321 10.7142857,0.101313321 C10.6810176,0.118198874 10.6311155,0.118198874 10.5978474,0.135084428 C9.99902153,0.303939962 9.45009785,0.590994371 8.96771037,0.962476548 C8.83463796,1.06378987 8.70156556,1.18198874 8.5851272,1.30018762 L1,9 L6.20645793,9 C7.47064579,9 8.56849315,8.51031895 9.36692759,7.69981238 Z" id="XMLID_245_"></path>
                        <path d="M8.64970646,10.3005379 L2.44520548,16.5985628 C1.7964775,17.2064151 0.998043053,17.7298434 -3.36808359e-12,18 L1.06457926,18 L3.29354207,18 L6.25440313,18 C6.33757339,18 6.40410959,18 6.47064579,18 C6.50391389,18 6.537182,18 6.58708415,18 C6.62035225,18 6.6369863,18 6.6702544,18 C6.86986301,17.9831152 7.05283757,17.9493456 7.25244618,17.8986913 C7.26908023,17.8986913 7.26908023,17.8986913 7.28571429,17.8986913 C7.31898239,17.8818065 7.36888454,17.8818065 7.40215264,17.8649217 C8.00097847,17.6960739 8.54990215,17.4090325 9.03228963,17.0375672 C9.16536204,16.9362585 9.29843444,16.818065 9.4148728,16.6998715 L17,9.00040943 L11.7935421,9.00040943 C10.5459883,8.98352464 9.4481409,9.4900682 8.64970646,10.3005379 Z" id="XMLID_244_"></path>
                        <path d="M20.2833333,5.47722343 C20.2833333,5.47722343 20.2833333,5.45986985 20.2833333,5.45986985 C20.2833333,5.42516269 20.3,5.40780911 20.3333333,5.39045553 C21.0333333,5.164859 23,4.95661605 23,4.95661605 C23,4.95661605 21.0166667,4.81778742 20.3166667,4.60954447 C20.3,4.59219089 20.2666667,4.57483731 20.2666667,4.54013015 C20.2666667,4.54013015 20.2666667,4.52277657 20.2666667,4.52277657 C20.35,4.27982646 20.9833333,3.41214751 20.9833333,3.41214751 L19.9333333,4.17570499 C19.9333333,4.17570499 19.9166667,4.17570499 19.9166667,4.17570499 C19.8833333,4.17570499 19.8666667,4.15835141 19.85,4.12364425 C19.6333333,3.03036876 19.5,1 19.5,1 C19.5,1.01735358 19.3666667,3.03036876 19.15,4.12364425 C19.15,4.15835141 19.1166667,4.17570499 19.0833333,4.17570499 C19.0833333,4.17570499 19.0666667,4.17570499 19.0666667,4.17570499 L18.0166667,3.41214751 C18.0166667,3.41214751 18.65,4.26247289 18.7333333,4.50542299 C18.7333333,4.50542299 18.7333333,4.52277657 18.7333333,4.52277657 C18.7333333,4.55748373 18.7166667,4.57483731 18.6833333,4.59219089 C17.9833333,4.81778742 16,4.95661605 16,4.95661605 C16,4.95661605 17.9833333,5.164859 18.6833333,5.39045553 C18.7,5.40780911 18.7333333,5.42516269 18.7333333,5.45986985 C18.7333333,5.45986985 18.7333333,5.47722343 18.7333333,5.47722343 C18.65,5.72017354 18.0166667,6.5010846 18.0166667,6.5010846 L19.0833333,5.82429501 C19.0833333,5.82429501 19.1,5.82429501 19.1,5.82429501 C19.1333333,5.82429501 19.15,5.84164859 19.1666667,5.87635575 C19.3833333,6.96963124 19.5166667,9 19.5166667,9 C19.5166667,8.98264642 19.6666667,6.96963124 19.8833333,5.87635575 C19.8833333,5.84164859 19.9166667,5.82429501 19.95,5.82429501 C19.95,5.82429501 19.9666667,5.82429501 19.9666667,5.82429501 L21.0166667,6.5010846 C20.9833333,6.51843818 20.3666667,5.73752711 20.2833333,5.47722343 Z" id="XMLID_243_"></path>
                    </g>
                </g>
            </g>
        </g>
    </g>
</svg>